Biostat 203B Homework 3
…
We can use the tidyverse package googlesheets4 to import data from Google Sheets. Because the JHU sheets are public, we dont need authentication by tokens.

# no authentication
sheets_deauth()

Import the confirmed sheet:

(confirmed <- read_sheet("1UF2pSkFTURko2OvfHWWlFpDFAr1UxCBA4JLwlSP6KFo", sheet = 2))

## Reading from 'time_series_2019-ncov'

## Range "'Confirmed'"

## # A tibble: 72 x 41
##    `Province/State` `Country/Region`   Lat  Long `1/21/2020 10:0
##    <chr>            <chr>            <dbl> <dbl>            <dbl>
##  1 Anhui            Mainland China    31.8  117.               NA
##  2 Beijing          Mainland China    40.2  116.               10
##  3 Chongqing        Mainland China    30.1  108.                5
##  4 Fujian           Mainland China    26.1  118.               NA
##  5 Gansu            Mainland China    36.1  104.               NA
##  6 Guangdong        Mainland China    23.3  113.               17
##  7 Guangxi          Mainland China    23.8  109.               NA
##  8 Guizhou          Mainland China    26.8  107.               NA
##  9 Hainan           Mainland China    19.2  110.               NA
## 10 Hebei            Mainland China    38.0  115.               NA
## #  with 62 more rows, and 36 more variables: `1/22/2020 12:00 PM` <dbl>,
## #   `1/23/2020 12:00 PM` <dbl>, `1/24/2020 12:00 AM` <dbl>, `1/24/2020 12:00
## #   PM` <dbl>, `1/25/2020 12:00 AM` <dbl>, `1/25/2020 12:00 PM` <dbl>,
## #   `1/25/2020 10:00 PM` <dbl>, `1/26/2020 11:00 AM` <dbl>, `1/26/2020 11:00
## #   PM` <dbl>, `1/27/2020 9:00 AM` <dbl>, `1/27/2020 7:00 PM` <dbl>, `1/27/2020
## #   8:30 PM` <dbl>, `1/28/2020 1:00 PM` <dbl>, `1/28/2020 6:00 PM` <dbl>,
## #   `1/28/2020 11:00 PM` <dbl>, `1/29/2020 1:30 PM` <dbl>, `1/29/2020 2:30
## #   PM` <dbl>, `1/29/2020 9:00 PM` <dbl>, `1/30/2020 11:00 AM` <dbl>,
## #   `1/31/2020 2:00 PM` <dbl>, `2/1/2020 10:00 AM` <dbl>, `2/2/2020 9:00
…
Import the recovered sheet:

(recovered <- read_sheet("1UF2pSkFTURko2OvfHWWlFpDFAr1UxCBA4JLwlSP6KFo", sheet = 3))

## Reading from 'time_series_2019-ncov'

## Range "'Recovered'"

## # A tibble: 72 x 41
##    `Province/State` `Country/Region`   Lat  Long `1/21/2020 10:0
##    <chr>            <chr>            <dbl> <dbl>            <dbl>
##  1 Anhui            Mainland China    31.8  117.               NA
##  2 Beijing          Mainland China    40.2  116.               NA
##  3 Chongqing        Mainland China    30.1  108.               NA
##  4 Fujian           Mainland China    26.1  118.               NA
##  5 Gansu            Mainland China    36.1  104.               NA
##  6 Guangdong        Mainland China    23.3  113.               NA
##  7 Guangxi          Mainland China    23.8  109.               NA
##  8 Guizhou          Mainland China    26.8  107.               NA
##  9 Hainan           Mainland China    19.2  110.               NA
## 10 Hebei            Mainland China    38.0  115.               NA
## #  with 62 more rows, and 36 more variables: `1/22/2020 12:00 PM` <dbl>,
## #   `1/23/2020 12:00 PM` <dbl>, `1/24/2020 12:00 AM` <dbl>, `1/24/2020 12:00
## #   PM` <dbl>, `1/25/2020 12:00 AM` <dbl>, `1/25/2020 12:00 PM` <dbl>,
## #   `1/25/2020 10:00 PM` <dbl>, `1/26/2020 11:00 AM` <dbl>, `1/26/2020 11:00
## #   PM` <dbl>, `1/27/2020 9:00 AM` <dbl>, `1/27/2020 7:00 PM` <dbl>, `1/27/2020
## #   8:30 PM` <dbl>, `1/28/2020 1:00 PM` <dbl>, `1/28/2020 6:00 PM` <dbl>,
## #   `1/28/2020 11:00 PM` <dbl>, `1/29/2020 1:30 PM` <dbl>, `1/29/2020 2:30
## #   PM` <dbl>, `1/29/2020 9:00 PM` <dbl>, `1/30/2020 11:00 AM` <dbl>,
## #   `1/31/2020 2:00 PM` <dbl>, `2/1/2020 10:00 AM` <dbl>, `2/2/2020 9:00
…
Import the death sheet:

(death <- read_sheet("1UF2pSkFTURko2OvfHWWlFpDFAr1UxCBA4JLwlSP6KFo", sheet = 4))

## Reading from 'time_series_2019-ncov'

## Range "'Death'"

## # A tibble: 72 x 41
##    `Province/State` `Country/Region`   Lat  Long `1/21/2020 10:0
##    <chr>            <chr>            <dbl> <dbl> <lgl>           
##  1 Anhui            Mainland China    31.8  117. NA              
##  2 Beijing          Mainland China    40.2  116. NA              
##  3 Chongqing        Mainland China    30.1  108. NA              
##  4 Fujian           Mainland China    26.1  118. NA              
##  5 Gansu            Mainland China    36.1  104. NA              
##  6 Guangdong        Mainland China    23.3  113. NA              
##  7 Guangxi          Mainland China    23.8  109. NA              
##  8 Guizhou          Mainland China    26.8  107. NA              
##  9 Hainan           Mainland China    19.2  110. NA              
## 10 Hebei            Mainland China    38.0  115. NA              
## #  with 62 more rows, and 36 more variables: `1/22/2020 12:00 PM` <lgl>,
## #   `1/23/2020 12:00 PM` <lgl>, `1/24/2020 12:00 AM` <dbl>, `1/24/2020 12:00
## #   PM` <dbl>, `1/25/2020 12:00 AM` <dbl>, `1/25/2020 12:00 PM` <dbl>,
## #   `1/25/2020 10:00 PM` <dbl>, `1/26/2020 11:00 AM` <dbl>, `1/26/2020 11:00
## #   PM` <dbl>, `1/27/2020 9:00 AM` <dbl>, `1/27/2020 7:00 PM` <dbl>, `1/27/2020
## #   8:30 PM` <dbl>, `1/28/2020 1:00 PM` <dbl>, `1/28/2020 6:00 PM` <dbl>,
## #   `1/28/2020 11:00 PM` <dbl>, `1/29/2020 1:30 PM` <dbl>, `1/29/2020 2:30
## #   PM` <dbl>, `1/29/2020 9:00 PM` <dbl>, `1/30/2020 11:00 AM` <dbl>,
## #   `1/31/2020 2:00 PM` <dbl>, `2/1/2020 10:00 AM` <dbl>, `2/2/2020 9:00
…
Tidy data

I want to tidy data into the long format. pivot_longer is the modern version of gather function in dplyr.

confirmed_long <- confirmed %>%
  pivot_longer(-(`Province/State`:Long), 
               names_to = "time", 
               values_to = "confirmed") %>%
  mutate(time = mdy_hm(time))
confirmed_long

## # A tibble: 2,664 x 6
##    `Province/State` `Country/Region`   Lat  Long time                confirmed
##    <chr>            <chr>            <dbl> <dbl> <dttm>                  <dbl>
##  1 Anhui            Mainland China    31.8  117. 2020-01-21 22:00:00        NA
##  2 Anhui            Mainland China    31.8  117. 2020-01-22 12:00:00         1
##  3 Anhui            Mainland China    31.8  117. 2020-01-23 12:00:00         9
##  4 Anhui            Mainland China    31.8  117. 2020-01-24 00:00:00        15
##  5 Anhui            Mainland China    31.8  117. 2020-01-24 12:00:00        15
##  6 Anhui            Mainland China    31.8  117. 2020-01-25 00:00:00        39
##  7 Anhui            Mainland China    31.8  117. 2020-01-25 12:00:00        39
##  8 Anhui            Mainland China    31.8  117. 2020-01-25 22:00:00        60
##  9 Anhui            Mainland China    31.8  117. 2020-01-26 11:00:00        60
## 10 Anhui            Mainland China    31.8  117. 2020-01-26 23:00:00        70
## #  with 2,654 more rows

recovered_long <- recovered %>%
  pivot_longer(-(`Province/State`:Long), 
               names_to = "time", 
               values_to = "recovered") %>%
  mutate(time = mdy_hm(time))
recovered_long

## # A tibble: 2,664 x 6
##    `Province/State` `Country/Region`   Lat  Long time                recovered
##    <chr>            <chr>            <dbl> <dbl> <dttm>                  <dbl>
##  1 Anhui            Mainland China    31.8  117. 2020-01-21 22:00:00        NA
##  2 Anhui            Mainland China    31.8  117. 2020-01-22 12:00:00        NA
##  3 Anhui            Mainland China    31.8  117. 2020-01-23 12:00:00        NA
##  4 Anhui            Mainland China    31.8  117. 2020-01-24 00:00:00        NA
##  5 Anhui            Mainland China    31.8  117. 2020-01-24 12:00:00        NA
##  6 Anhui            Mainland China    31.8  117. 2020-01-25 00:00:00        NA
##  7 Anhui            Mainland China    31.8  117. 2020-01-25 12:00:00        NA
##  8 Anhui            Mainland China    31.8  117. 2020-01-25 22:00:00        NA
##  9 Anhui            Mainland China    31.8  117. 2020-01-26 11:00:00        NA
## 10 Anhui            Mainland China    31.8  117. 2020-01-26 23:00:00        NA
## #  with 2,654 more rows

death_long <- death %>%
  pivot_longer(-(`Province/State`:Long), 
               names_to = "time", 
               values_to = "death") %>%
  mutate(time = mdy_hm(time))
death_long

## # A tibble: 2,664 x 6
##    `Province/State` `Country/Region`   Lat  Long time                death
##    <chr>            <chr>            <dbl> <dbl> <dttm>              <dbl>
##  1 Anhui            Mainland China    31.8  117. 2020-01-21 22:00:00    NA
##  2 Anhui            Mainland China    31.8  117. 2020-01-22 12:00:00    NA
##  3 Anhui            Mainland China    31.8  117. 2020-01-23 12:00:00    NA
##  4 Anhui            Mainland China    31.8  117. 2020-01-24 00:00:00    NA
##  5 Anhui            Mainland China    31.8  117. 2020-01-24 12:00:00    NA
##  6 Anhui            Mainland China    31.8  117. 2020-01-25 00:00:00    NA
##  7 Anhui            Mainland China    31.8  117. 2020-01-25 12:00:00    NA
##  8 Anhui            Mainland China    31.8  117. 2020-01-25 22:00:00    NA
##  9 Anhui            Mainland China    31.8  117. 2020-01-26 11:00:00    NA
## 10 Anhui            Mainland China    31.8  117. 2020-01-26 23:00:00    NA
## #  with 2,654 more rows

ncov_tbl <- confirmed_long %>%
  left_join(recovered_long) %>%
  left_join(death_long)

## Joining, by = c("Province/State", "Country/Region", "Lat", "Long",
## "time")Joining, by = c("Province/State", "Country/Region", "Lat", "Long",
## "time")

ncov_tbl %>% print(width = Inf)

## # A tibble: 2,664 x 8
##    `Province/State` `Country/Region`   Lat  Long time                confirmed
##    <chr>            <chr>            <dbl> <dbl> <dttm>                  <dbl>
##  1 Anhui            Mainland China    31.8  117. 2020-01-21 22:00:00        NA
##  2 Anhui            Mainland China    31.8  117. 2020-01-22 12:00:00         1
##  3 Anhui            Mainland China    31.8  117. 2020-01-23 12:00:00         9
##  4 Anhui            Mainland China    31.8  117. 2020-01-24 00:00:00        15
##  5 Anhui            Mainland China    31.8  117. 2020-01-24 12:00:00        15
##  6 Anhui            Mainland China    31.8  117. 2020-01-25 00:00:00        39
##  7 Anhui            Mainland China    31.8  117. 2020-01-25 12:00:00        39
##  8 Anhui            Mainland China    31.8  117. 2020-01-25 22:00:00        60
##  9 Anhui            Mainland China    31.8  117. 2020-01-26 11:00:00        60
## 10 Anhui            Mainland China    31.8  117. 2020-01-26 23:00:00        70
##    recovered death
##        <dbl> <dbl>
##  1        NA    NA
##  2        NA    NA
##  3        NA    NA
##  4        NA    NA
##  5        NA    NA
##  6        NA    NA
##  7        NA    NA
##  8        NA    NA
##  9        NA    NA
## 10        NA    NA
## #  with 2,654 more rows
…
chn_map %>% print(width = Inf)

## Simple feature collection with 925 features and 7 fields
## geometry type:  POLYGON
## dimension:      XY
## bbox:           xmin: 73.44696 ymin: 6.318641 xmax: 135.0858 ymax: 53.55793
## epsg (SRID):    NA
## proj4string:    NA
## # A tibble: 925 x 8
##      AREA PERIMETER BOU2_4M_ BOU2_4M_ID ADCODE93 ADCODE99 NAME            
##  *  <dbl>     <dbl>    <int>      <int>    <int>    <int> <chr>           
##  1  54.4     68.5          2         23   230000   230000         
##  2 129.     130.           3         15   150000   150000     
##  3 176.      84.9          4         65   650000   650000 
##  4  21.3     41.2          5         22   220000   220000           
##  5  15.6     38.4          6         21   210000   210000           
##  6  41.5     76.8          7         62   620000   620000           
##  7  19.5     44.9          8         13   130000   130000           
##  8   1.73     8.50         9         11   110000   110000           
##  9   0        0.088       10        292   210000   210000           
## 10   0        0.047       11        292   210000   210000           
##                                                                         geometry
##  *                                                                     <POLYGON>
##  1 ((121.4884 53.33265, 121.4995 53.33601, 121.5184 53.33919, 121.5391 53.34172
##  2 ((121.4884 53.33265, 121.4974 53.32104, 121.5004 53.31389, 121.5316 53.30765
##  3 ((96.38329 42.72696, 96.35991 42.70969, 96.09664 42.59967, 96.05975 42.39874
##  4 ((123.171 46.24668, 123.2186 46.26945, 123.2394 46.27015, 123.2881 46.24924,
##  5 ((123.6902 43.37677, 123.705 43.38155, 123.7156 43.43486, 123.7683 43.47599,
##  6 ((96.38329 42.72696, 96.38308 42.72533, 96.39072 42.72654, 96.39691 42.72712
##  7 ((116.9304 42.41145, 116.9627 42.42617, 116.9878 42.42606, 117.0181 42.45633
##  8 ((117.496 40.66534, 117.4992 40.64039, 117.4938 40.63514, 117.4757 40.63649,
##  9 ((121.7627 41.0012, 121.773 41.00534, 121.7758 41.01176, 121.7749 41.02047, 
## 10 ((121.7979 40.99618, 121.7931 40.98311, 121.7855 40.97898, 121.7834 40.98471
## #  with 915 more rows
…
